src/paraleloserial.vcd
$date
	Mon Oct 16 20:25:15 2017
$end
$version
	Icarus Verilog
$end
$timescale
	1s
$end
$scope module BUF $end
$var wire 1 ! A $end
$var wire 1 " Y $end
$upscope $end
$scope module DFFSR $end
$var wire 1 # C $end
$var wire 1 $ D $end
$var wire 1 % R $end
$var wire 1 & S $end
$var reg 1 ' Q $end
$upscope $end
$scope module NAND $end
$var wire 1 ( A $end
$var wire 1 ) B $end
$var wire 1 * Y $end
$upscope $end
$scope module testbench $end
$var wire 1 + OSsint $end
$var wire 1 , OS $end
$var wire 10 - OPsint [9:0] $end
$var wire 10 . OP [9:0] $end
$var wire 1 / LOADS $end
$var wire 1 0 IS $end
$var wire 10 1 D [9:0] $end
$var wire 1 2 CLOCK $end
$scope module convertidorps $end
$var wire 1 , OS $end
$var wire 1 / LOADS $end
$var wire 1 0 IS $end
$var wire 10 3 D [9:0] $end
$var wire 1 2 CLOCK $end
$var reg 10 4 temp [9:0] $end
$upscope $end
$scope module convertidorpssint $end
$var wire 1 5 _13_ $end
$var wire 1 6 _19_ $end
$var wire 10 7 temp [9:0] $end
$var wire 1 8 _52_ $end
$var wire 1 9 _51_ $end
$var wire 1 : _50_ $end
$var wire 1 ; _49_ $end
$var wire 1 < _48_ $end
$var wire 1 = _47_ $end
$var wire 1 > _46_ $end
$var wire 1 ? _45_ $end
$var wire 1 @ _44_ $end
$var wire 1 A _43_ $end
$var wire 1 B _42_ $end
$var wire 1 C _41_ $end
$var wire 1 D _40_ $end
$var wire 1 E _39_ $end
$var wire 1 F _38_ $end
$var wire 1 G _37_ $end
$var wire 1 H _36_ $end
$var wire 1 I _35_ $end
$var wire 1 J _34_ $end
$var wire 1 K _33_ $end
$var wire 1 L _32_ $end
$var wire 1 M _31_ $end
$var wire 1 N _30_ $end
$var wire 1 O _29_ $end
$var wire 1 P _28_ $end
$var wire 1 Q _27_ $end
$var wire 1 R _26_ $end
$var wire 1 S _25_ $end
$var wire 1 T _24_ $end
$var wire 1 U _23_ $end
$var wire 1 V _22_ $end
$var wire 1 W _21_ $end
$var wire 1 X _20_ $end
$var wire 1 Y _18_ $end
$var wire 1 Z _17_ $end
$var wire 1 [ _16_ $end
$var wire 1 \ _15_ $end
$var wire 1 ] _14_ $end
$var wire 1 ^ _12_ $end
$var wire 1 _ _11_ $end
$var wire 1 ` _10_ $end
$var wire 1 a _09_ $end
$var wire 1 b _08_ $end
$var wire 1 c _07_ $end
$var wire 1 d _06_ $end
$var wire 1 e _05_ $end
$var wire 1 f _04_ $end
$var wire 1 g _03_ $end
$var wire 1 h _02_ $end
$var wire 1 i _01_ $end
$var wire 10 j _00_ [9:0] $end
$var wire 1 + OS $end
$var wire 1 / LOADS $end
$var wire 1 0 IS $end
$var wire 10 k D [9:0] $end
$var wire 1 2 CLOCK $end
$scope module _53_ $end
$var wire 1 ` A $end
$var wire 1 E Y $end
$var wire 1 Q B $end
$upscope $end
$scope module _54_ $end
$var wire 1 E A $end
$var wire 1 _ Y $end
$var wire 1 F B $end
$upscope $end
$scope module _55_ $end
$var wire 1 ^ A $end
$var wire 1 5 B $end
$var wire 1 C Y $end
$upscope $end
$scope module _56_ $end
$var wire 1 ] A $end
$var wire 1 B Y $end
$var wire 1 Q B $end
$upscope $end
$scope module _57_ $end
$var wire 1 B A $end
$var wire 1 C B $end
$var wire 1 \ Y $end
$upscope $end
$scope module _58_ $end
$var wire 1 [ A $end
$var wire 1 5 B $end
$var wire 1 A Y $end
$upscope $end
$scope module _59_ $end
$var wire 1 Z A $end
$var wire 1 @ Y $end
$var wire 1 Q B $end
$upscope $end
$scope module _60_ $end
$var wire 1 @ A $end
$var wire 1 A B $end
$var wire 1 Y Y $end
$upscope $end
$scope module _61_ $end
$var wire 1 6 A $end
$var wire 1 5 B $end
$var wire 1 ? Y $end
$upscope $end
$scope module _62_ $end
$var wire 1 X A $end
$var wire 1 > Y $end
$var wire 1 Q B $end
$upscope $end
$scope module _63_ $end
$var wire 1 > A $end
$var wire 1 ? B $end
$var wire 1 W Y $end
$upscope $end
$scope module _64_ $end
$var wire 1 V A $end
$var wire 1 5 B $end
$var wire 1 < Y $end
$upscope $end
$scope module _65_ $end
$var wire 1 U A $end
$var wire 1 ; Y $end
$var wire 1 Q B $end
$upscope $end
$scope module _66_ $end
$var wire 1 ; A $end
$var wire 1 < B $end
$var wire 1 S Y $end
$upscope $end
$scope module _67_ $end
$var wire 1 5 A $end
$var wire 1 i B $end
$var wire 1 R Y $end
$upscope $end
$scope module _68_ $end
$var wire 1 5 A $end
$var wire 1 Q Y $end
$upscope $end
$scope module _69_ $end
$var wire 1 Q A $end
$var wire 1 h B $end
$var wire 1 P Y $end
$upscope $end
$scope module _70_ $end
$var wire 1 P A $end
$var wire 1 R B $end
$var wire 1 T Y $end
$upscope $end
$scope module _71_ $end
$var wire 1 L A $end
$var wire 1 5 B $end
$var wire 1 O Y $end
$upscope $end
$scope module _72_ $end
$var wire 1 D A $end
$var wire 1 Q B $end
$var wire 1 N Y $end
$upscope $end
$scope module _73_ $end
$var wire 1 N A $end
$var wire 1 O B $end
$var wire 1 = Y $end
$upscope $end
$scope module _74_ $end
$var wire 1 : A $end
$var wire 1 5 B $end
$var wire 1 M Y $end
$upscope $end
$scope module _75_ $end
$var wire 1 9 A $end
$var wire 1 Q B $end
$var wire 1 K Y $end
$upscope $end
$scope module _76_ $end
$var wire 1 K A $end
$var wire 1 M B $end
$var wire 1 8 Y $end
$upscope $end
$scope module _77_ $end
$var wire 1 g A $end
$var wire 1 5 B $end
$var wire 1 J Y $end
$upscope $end
$scope module _78_ $end
$var wire 1 f A $end
$var wire 1 Q B $end
$var wire 1 I Y $end
$upscope $end
$scope module _79_ $end
$var wire 1 I A $end
$var wire 1 J B $end
$var wire 1 e Y $end
$upscope $end
$scope module _80_ $end
$var wire 1 d A $end
$var wire 1 5 B $end
$var wire 1 H Y $end
$upscope $end
$scope module _81_ $end
$var wire 1 c A $end
$var wire 1 Q B $end
$var wire 1 G Y $end
$upscope $end
$scope module _82_ $end
$var wire 1 G A $end
$var wire 1 H B $end
$var wire 1 b Y $end
$upscope $end
$scope module _83_ $end
$var wire 1 a A $end
$var wire 1 5 B $end
$var wire 1 F Y $end
$upscope $end
$scope module _84_ $end
$var wire 1 l D $end
$var wire 1 2 C $end
$var reg 1 m Q $end
$upscope $end
$scope module _85_ $end
$var wire 1 n D $end
$var wire 1 2 C $end
$var reg 1 o Q $end
$upscope $end
$scope module _86_ $end
$var wire 1 p D $end
$var wire 1 2 C $end
$var reg 1 q Q $end
$upscope $end
$scope module _87_ $end
$var wire 1 r D $end
$var wire 1 2 C $end
$var reg 1 s Q $end
$upscope $end
$scope module _88_ $end
$var wire 1 t D $end
$var wire 1 2 C $end
$var reg 1 u Q $end
$upscope $end
$scope module _89_ $end
$var wire 1 v D $end
$var wire 1 2 C $end
$var reg 1 w Q $end
$upscope $end
$scope module _90_ $end
$var wire 1 x D $end
$var wire 1 2 C $end
$var reg 1 y Q $end
$upscope $end
$scope module _91_ $end
$var wire 1 z D $end
$var wire 1 2 C $end
$var reg 1 { Q $end
$upscope $end
$scope module _92_ $end
$var wire 1 | D $end
$var wire 1 2 C $end
$var reg 1 } Q $end
$upscope $end
$scope module _93_ $end
$var wire 1 ~ D $end
$var wire 1 2 C $end
$var reg 1 !" Q $end
$upscope $end
$upscope $end
$scope module convertidorsp $end
$var wire 1 , IS $end
$var wire 10 "" OP [9:0] $end
$var wire 1 2 CLOCK $end
$var reg 10 #" temp [9:0] $end
$upscope $end
$scope module convertidorspsint $end
$var wire 1 + IS $end
$var wire 10 $" OP [9:0] $end
$var wire 10 %" temp [9:0] $end
$var wire 1 2 CLOCK $end
$scope module _0_ $end
$var wire 1 &" D $end
$var wire 1 2 C $end
$var reg 1 '" Q $end
$upscope $end
$scope module _1_ $end
$var wire 1 (" D $end
$var wire 1 2 C $end
$var reg 1 )" Q $end
$upscope $end
$scope module _2_ $end
$var wire 1 *" D $end
$var wire 1 2 C $end
$var reg 1 +" Q $end
$upscope $end
$scope module _3_ $end
$var wire 1 ," D $end
$var wire 1 2 C $end
$var reg 1 -" Q $end
$upscope $end
$scope module _4_ $end
$var wire 1 ." D $end
$var wire 1 2 C $end
$var reg 1 /" Q $end
$upscope $end
$scope module _5_ $end
$var wire 1 0" D $end
$var wire 1 2 C $end
$var reg 1 1" Q $end
$upscope $end
$scope module _6_ $end
$var wire 1 2" D $end
$var wire 1 2 C $end
$var reg 1 3" Q $end
$upscope $end
$scope module _7_ $end
$var wire 1 4" D $end
$var wire 1 2 C $end
$var reg 1 5" Q $end
$upscope $end
$scope module _8_ $end
$var wire 1 6" D $end
$var wire 1 2 C $end
$var reg 1 7" Q $end
$upscope $end
$scope module _9_ $end
$var wire 1 + D $end
$var wire 1 2 C $end
$var reg 1 8" Q $end
$upscope $end
$upscope $end
$scope module pruebaps $end
$var reg 1 2 CLOCK $end
$var reg 10 9" D [9:0] $end
$var reg 1 0 IS $end
$var reg 1 / LOADS $end
$var reg 10 :" contadorn [9:0] $end
$var reg 10 ;" contadorp [9:0] $end
$upscope $end
$upscope $end
$enddefinitions $end
#0
$dumpvars
b0 ;"
b0 :"
b0 9"
x8"
x7"
x6"
x5"
x4"
x3"
x2"
x1"
x0"
x/"
x."
x-"
x,"
x+"
x*"
x)"
x("
x'"
x&"
bx %"
bx $"
bx #"
bx ""
x!"
0~
x}
0|
x{
0z
xy
0x
xw
0v
xu
0t
xs
0r
xq
0p
xo
0n
xm
0l
b0 k
b0 j
xi
0h
xg
0f
0e
xd
0c
0b
xa
0`
0_
x^
0]
0\
x[
0Z
0Y
0X
0W
xV
0U
0T
0S
0R
0Q
1P
0O
1N
0M
xL
1K
0J
1I
0H
1G
0F
1E
0D
0C
1B
0A
1@
0?
1>
0=
0<
1;
x:
09
08
bx 7
16
15
bx 4
b0 3
02
b0 1
10
1/
bx .
bx -
x,
x+
x*
z)
z(
x'
z&
z%
z$
z#
z"
z!
$end
#4
0+
0V
0i
0L
0:
0g
0d
0a
0^
0[
0m
0o
0q
0s
0u
0w
0y
0{
0}
b0 7
0!"
0,
b1 ;"
b0 4
12
#8
1~
b1000000000 j
1W
0P
0N
0K
0I
0G
0;
0>
0@
0B
0E
1C
1A
1<
1R
1O
1M
1J
1H
1F
1Q
b1 :"
05
0/
02
#12
1|
b1100000000 j
1Y
0A
06"
1[
b0xxxxxxxxx -
b0xxxxxxxxx $"
b0xxxxxxxxx %"
08"
b1000000000 7
1!"
b0xxxxxxxxx .
b0xxxxxxxxx ""
b0xxxxxxxxx #"
b1000000000 4
b10 ;"
12
#16
b10 :"
02
#20
1z
b1110000000 j
1\
0C
1^
04"
b1100000000 7
1}
b0xxxxxxxx -
b0xxxxxxxx $"
b0xxxxxxxx %"
07"
b11 ;"
b1100000000 4
b0xxxxxxxx .
b0xxxxxxxx ""
b0xxxxxxxx #"
12
#24
b11 :"
02
#28
1x
b1111000000 j
1_
0F
02"
1a
b0xxxxxxx -
b0xxxxxxx $"
b0xxxxxxx %"
05"
b1110000000 7
1{
b0xxxxxxx .
b0xxxxxxx ""
b0xxxxxxx #"
b1110000000 4
b100 ;"
12
#32
b100 :"
02
#36
1v
b1111100000 j
1b
0H
1d
00"
b1111000000 7
1y
b0xxxxxx -
b0xxxxxx $"
b0xxxxxx %"
03"
b101 ;"
b1111000000 4
b0xxxxxx .
b0xxxxxx ""
b0xxxxxx #"
12
#40
b101 :"
02
#44
1t
b1111110000 j
1e
0J
0."
1g
b0xxxxx -
b0xxxxx $"
b0xxxxx %"
01"
b1111100000 7
1w
b0xxxxx .
b0xxxxx ""
b0xxxxx #"
b1111100000 4
b110 ;"
12
#48
b110 :"
02
#52
1r
b1111111000 j
18
0M
1:
0,"
b1111110000 7
1u
b0xxxx -
b0xxxx $"
b0xxxx %"
0/"
b111 ;"
b1111110000 4
b0xxxx .
b0xxxx ""
b0xxxx #"
12
#56
b111 :"
02
#60
1p
b1111111100 j
1=
0O
0*"
1L
b0xxx -
b0xxx $"
b0xxx %"
0-"
b1111111000 7
1s
b0xxx .
b0xxx ""
b0xxx #"
b1111111000 4
b1000 ;"
12
#64
b1000 :"
02
#68
1n
b1111111110 j
1T
0R
1i
0("
b1111111100 7
1q
b0xx -
b0xx $"
b0xx %"
0+"
b1001 ;"
b1111111100 4
b0xx .
b0xx ""
b0xx #"
12
#72
b1001 :"
02
#76
1l
b1111111111 j
1S
0<
0&"
1V
b0x -
b0x $"
b0x %"
0)"
b1111111110 7
1o
1U
b0x .
b0x ""
b0x #"
b1111111110 4
b1 1
b1 3
b1 k
b1 9"
b1010 ;"
12
#80
0n
0p
0r
0t
0v
0~
0|
0z
0x
0T
0=
08
0e
0b
0W
0Y
0\
b1 j
0_
1P
1N
1K
1I
1G
1>
1@
1B
1E
0Q
15
1/
b1010 :"
02
#84
1+
0V
0i
0L
0:
0g
0d
0a
0^
0[
1m
0o
0q
0s
0u
0w
0y
0{
0}
b1 7
0!"
b0 -
b0 $"
b0 %"
0'"
1,
b1 ;"
b1 4
b0 .
b0 ""
b0 #"
12
#88
1~
0l
1W
b1000000000 j
0S
0P
0N
0K
0I
0G
0>
0@
0B
0E
1C
1A
1<
1R
1O
1M
1J
1H
1F
1Q
b1 :"
05
0/
02
#92
1|
b1100000000 j
1Y
0A
16"
1[
0+
b1000000000 -
b1000000000 $"
b1000000000 %"
18"
1!"
b1000000000 7
0m
0,
b1000000000 .
b1000000000 ""
b1000000000 #"
b1000000000 4
b10 ;"
12
#96
b10 :"
02
#100
1z
b1110000000 j
1\
0C
1^
14"
06"
b1100000000 7
1}
17"
b100000000 -
b100000000 $"
b100000000 %"
08"
b11 ;"
b1100000000 4
b100000000 .
b100000000 ""
b100000000 #"
12
#104
b11 :"
02
#108
1x
b1111000000 j
1_
0F
04"
12"
1a
07"
b10000000 -
b10000000 $"
b10000000 %"
15"
b1110000000 7
1{
b10000000 .
b10000000 ""
b10000000 #"
b1110000000 4
b100 ;"
12
#112
b100 :"
02
#116
1v
b1111100000 j
1b
0H
1d
10"
02"
b1111000000 7
1y
13"
b1000000 -
b1000000 $"
b1000000 %"
05"
b101 ;"
b1111000000 4
b1000000 .
b1000000 ""
b1000000 #"
12
#120
b101 :"
02
#124
1t
b1111110000 j
1e
0J
00"
1."
1g
03"
b100000 -
b100000 $"
b100000 %"
11"
b1111100000 7
1w
b100000 .
b100000 ""
b100000 #"
b1111100000 4
b110 ;"
12
#128
b110 :"
02
#132
1r
b1111111000 j
18
0M
1:
1,"
0."
b1111110000 7
1u
1/"
b10000 -
b10000 $"
b10000 %"
01"
b111 ;"
b1111110000 4
b10000 .
b10000 ""
b10000 #"
12
#136
b111 :"
02
#140
1p
b1111111100 j
1=
0O
0,"
1*"
1L
0/"
b1000 -
b1000 $"
b1000 %"
1-"
b1111111000 7
1s
b1000 .
b1000 ""
b1000 #"
b1111111000 4
b1000 ;"
12
#144
b1000 :"
02
#148
1n
b1111111110 j
1T
0R
1i
1("
0*"
b1111111100 7
1q
1+"
b100 -
b100 $"
b100 %"
0-"
b1001 ;"
b1111111100 4
b100 .
b100 ""
b100 #"
12
#152
b1001 :"
02
#156
1l
b1111111111 j
1S
0<
0("
1&"
1V
0+"
b10 -
b10 $"
b10 %"
1)"
b1111111110 7
1o
0U
1h
b10 .
b10 ""
b10 #"
b1111111110 4
b10 1
b10 3
b10 k
b10 9"
b1010 ;"
12
#160
0p
0r
0t
0v
0l
0~
0|
0z
0x
0=
08
0e
0b
0S
0W
0Y
0\
b10 j
0_
1N
1K
1I
1G
1;
1>
1@
1B
1E
0Q
15
1/
b1010 :"
02
#164
0i
0L
0:
0g
0d
0a
0^
0[
0&"
0q
0s
0u
0w
0y
0{
0}
b10 7
0!"
1'"
b1 -
b1 $"
b1 %"
0)"
b1 ;"
b10 4
b1 .
b1 ""
b1 #"
12
#168
1l
1~
0n
1S
1W
b1000000001 j
0T
0N
0K
0I
0G
0;
0>
0@
0B
0E
1C
1A
1R
1O
1M
1J
1H
1F
1Q
b1 :"
05
0/
02
#172
1|
0l
1Y
b1100000000 j
0S
0A
1<
1[
0V
1+
b0 -
b0 $"
b0 %"
0'"
1!"
0o
b1000000001 7
1m
1,
b0 .
b0 ""
b0 #"
b1000000001 4
b10 ;"
12
#176
b10 :"
02
#180
1z
b1110000000 j
1\
0C
0+
1^
16"
0m
b1100000000 7
1}
b1000000000 -
b1000000000 $"
b1000000000 %"
18"
0,
b11 ;"
b1100000000 4
b1000000000 .
b1000000000 ""
b1000000000 #"
12
#184
b11 :"
02
#188
1x
b1111000000 j
1_
0F
06"
14"
1a
08"
b100000000 -
b100000000 $"
b100000000 %"
17"
b1110000000 7
1{
b100000000 .
b100000000 ""
b100000000 #"
b1110000000 4
b100 ;"
12
#192
b100 :"
02
#196
1v
b1111100000 j
1b
0H
1d
12"
04"
b1111000000 7
1y
15"
b10000000 -
b10000000 $"
b10000000 %"
07"
b101 ;"
b1111000000 4
b10000000 .
b10000000 ""
b10000000 #"
12
#200
b101 :"
02
#204
1t
b1111110000 j
1e
0J
02"
10"
1g
05"
b1000000 -
b1000000 $"
b1000000 %"
13"
b1111100000 7
1w
b1000000 .
b1000000 ""
b1000000 #"
b1111100000 4
b110 ;"
12
#208
b110 :"
02
#212
1r
b1111111000 j
18
0M
1:
1."
00"
b1111110000 7
1u
11"
b100000 -
b100000 $"
b100000 %"
03"
b111 ;"
b1111110000 4
b100000 .
b100000 ""
b100000 #"
12
#216
b111 :"
02
#220
1p
b1111111100 j
1=
0O
0."
1,"
1L
01"
b10000 -
b10000 $"
b10000 %"
1/"
b1111111000 7
1s
b10000 .
b10000 ""
b10000 #"
b1111111000 4
b1000 ;"
12
#224
b1000 :"
02
#228
1n
b1111111110 j
1T
0R
1i
1*"
0,"
b1111111100 7
1q
1-"
b1000 -
b1000 $"
b1000 %"
0/"
b1001 ;"
b1111111100 4
b1000 .
b1000 ""
b1000 #"
12
#232
b1001 :"
02
#236
1l
b1111111111 j
1S
0<
0*"
1("
1V
0-"
b100 -
b100 $"
b100 %"
1+"
b1111111110 7
1o
1U
b100 .
b100 ""
b100 #"
b1111111110 4
b11 1
b11 3
b11 k
b11 9"
b1010 ;"
12
#240
0p
0r
0t
0v
0~
0|
0z
0x
0=
08
0e
0b
0W
0Y
0\
b11 j
0_
1N
1K
1I
1G
1>
1@
1B
1E
0Q
15
1/
b1010 :"
02
#244
1+
0i
0L
0:
0g
0d
0a
0^
0[
1&"
0("
1m
0q
0s
0u
0w
0y
0{
0}
b11 7
0!"
1)"
b10 -
b10 $"
b10 %"
0+"
1,
b1 ;"
b11 4
b10 .
b10 ""
b10 #"
12
#248
1~
0n
1W
b1000000001 j
0T
0N
0K
0I
0G
0>
0@
0B
0E
1C
1A
1R
1O
1M
1J
1H
1F
1Q
b1 :"
05
0/
02
#252
1|
0l
1Y
b1100000000 j
0S
0A
1<
16"
0&"
1[
0V
18"
0)"
b1000000001 -
b1000000001 $"
b1000000001 %"
1'"
1!"
b1000000001 7
0o
b1000000001 .
b1000000001 ""
b1000000001 #"
b1000000001 4
b10 ;"
12
#256
b10 :"
02
#260
1z
b1110000000 j
1\
0C
0+
1^
14"
0m
b1100000000 7
1}
0'"
b1100000000 -
b1100000000 $"
b1100000000 %"
17"
0,
b11 ;"
b1100000000 4
b1100000000 .
b1100000000 ""
b1100000000 #"
12
#264
b11 :"
02
#268
1x
b1111000000 j
1_
0F
06"
12"
1a
08"
b110000000 -
b110000000 $"
b110000000 %"
15"
b1110000000 7
1{
b110000000 .
b110000000 ""
b110000000 #"
b1110000000 4
b100 ;"
12
#272
b100 :"
02
#276
1v
b1111100000 j
1b
0H
1d
10"
04"
b1111000000 7
1y
13"
b11000000 -
b11000000 $"
b11000000 %"
07"
b101 ;"
b1111000000 4
b11000000 .
b11000000 ""
b11000000 #"
12
#280
b101 :"
02
#284
1t
b1111110000 j
1e
0J
02"
1."
1g
05"
b1100000 -
b1100000 $"
b1100000 %"
11"
b1111100000 7
1w
b1100000 .
b1100000 ""
b1100000 #"
b1111100000 4
b110 ;"
12
#288
b110 :"
02
#292
1r
b1111111000 j
18
0M
1:
1,"
00"
b1111110000 7
1u
1/"
b110000 -
b110000 $"
b110000 %"
03"
b111 ;"
b1111110000 4
b110000 .
b110000 ""
b110000 #"
12
#296
b111 :"
02
#300
1p
b1111111100 j
1=
0O
0."
1*"
1L
01"
b11000 -
b11000 $"
b11000 %"
1-"
b1111111000 7
1s
b11000 .
b11000 ""
b11000 #"
b1111111000 4
b1000 ;"
12
#304
b1000 :"
02
#308
1n
b1111111110 j
1T
0R
1i
1("
0,"
b1111111100 7
1q
1+"
b1100 -
b1100 $"
b1100 %"
0/"
b1001 ;"
b1111111100 4
b1100 .
b1100 ""
b1100 #"
12
#312
b1001 :"
02
#316
1l
b1111111111 j
1S
0<
0*"
1&"
1V
0-"
b110 -
b110 $"
b110 %"
1)"
b1111111110 7
1o
0U
1D
0h
b110 .
b110 ""
b110 #"
b1111111110 4
b100 1
b100 3
b100 k
b100 9"
b1010 ;"
12
#320
0n
0r
0t
0v
0l
0~
0|
0z
0x
0T
08
0e
0b
0S
0W
0Y
0\
b100 j
0_
1P
1K
1I
1G
1;
1>
1@
1B
1E
0Q
15
1/
b1010 :"
02
#324
0V
0L
0:
0g
0d
0a
0^
0[
0("
0o
0s
0u
0w
0y
0{
0}
b100 7
0!"
1'"
b11 -
b11 $"
b11 %"
0+"
b1 ;"
b100 4
b11 .
b11 ""
b11 #"
12
#328
1n
1~
1T
1W
0p
b1000000010 j
0=
0P
0K
0I
0G
0;
0>
0@
0B
0E
1C
1A
1<
1O
1M
1J
1H
1F
1Q
b1 :"
05
0/
02
#332
1|
0n
1l
1Y
0T
b1100000001 j
1S
0A
1R
0<
0&"
1[
0i
1V
b1 -
b1 $"
b1 %"
0)"
1!"
0q
b1000000010 7
1o
b1 .
b1 ""
b1 #"
b1000000010 4
b10 ;"
12
#336
b10 :"
02
#340
0l
1z
0S
b1110000000 j
1\
1<
0C
1+
0V
1^
1m
0o
b1100000001 7
1}
b0 -
b0 $"
b0 %"
0'"
1,
b11 ;"
b1100000001 4
b0 .
b0 ""
b0 #"
12
#344
b11 :"
02
#348
1x
b1111000000 j
1_
0F
16"
1a
0+
b1000000000 -
b1000000000 $"
b1000000000 %"
18"
1{
b1110000000 7
0m
0,
b1000000000 .
b1000000000 ""
b1000000000 #"
b1110000000 4
b100 ;"
12
#352
b100 :"
02
#356
1v
b1111100000 j
1b
0H
1d
14"
06"
b1111000000 7
1y
17"
b100000000 -
b100000000 $"
b100000000 %"
08"
b101 ;"
b1111000000 4
b100000000 .
b100000000 ""
b100000000 #"
12
#360
b101 :"
02
#364
1t
b1111110000 j
1e
0J
04"
12"
1g
07"
b10000000 -
b10000000 $"
b10000000 %"
15"
b1111100000 7
1w
b10000000 .
b10000000 ""
b10000000 #"
b1111100000 4
b110 ;"
12
#368
b110 :"
02
#372
1r
b1111111000 j
18
0M
1:
10"
02"
b1111110000 7
1u
13"
b1000000 -
b1000000 $"
b1000000 %"
05"
b111 ;"
b1111110000 4
b1000000 .
b1000000 ""
b1000000 #"
12
#376
b111 :"
02
#380
1p
b1111111100 j
1=
0O
00"
1."
1L
03"
b100000 -
b100000 $"
b100000 %"
11"
b1111111000 7
1s
b100000 .
b100000 ""
b100000 #"
b1111111000 4
b1000 ;"
12
#384
b1000 :"
02
#388
1n
b1111111110 j
1T
0R
1i
1,"
0."
b1111111100 7
1q
1/"
b10000 -
b10000 $"
b10000 %"
01"
b1001 ;"
b1111111100 4
b10000 .
b10000 ""
b10000 #"
12
#392
b1001 :"
02
#396
1l
b1111111111 j
1S
0<
0,"
1*"
1V
0/"
b1000 -
b1000 $"
b1000 %"
1-"
b1111111110 7
1o
1U
b1000 .
b1000 ""
b1000 #"
b1111111110 4
b101 1
b101 3
b101 k
b101 9"
b1010 ;"
12
#400
0n
0r
0t
0v
0~
0|
0z
0x
0T
08
0e
0b
0W
0Y
0\
b101 j
0_
1P
1K
1I
1G
1>
1@
1B
1E
0Q
15
1/
b1010 :"
02
#404
1+
0V
0L
0:
0g
0d
0a
0^
0[
1("
0*"
1m
0o
0s
0u
0w
0y
0{
0}
b101 7
0!"
1+"
b100 -
b100 $"
b100 %"
0-"
1,
b1 ;"
b101 4
b100 .
b100 ""
b100 #"
12
#408
1n
1~
0l
1T
1W
0p
0S
b1000000010 j
0=
0P
0K
0I
0G
0>
0@
0B
0E
1C
1A
1<
1O
1M
1J
1H
1F
1Q
b1 :"
05
0/
02
#412
1|
0n
1l
1Y
0T
b1100000001 j
1S
0A
1R
0<
16"
0("
1&"
1[
0i
1V
0+
18"
0+"
b1000000010 -
b1000000010 $"
b1000000010 %"
1)"
1!"
0q
1o
b1000000010 7
0m
0,
b1000000010 .
b1000000010 ""
b1000000010 #"
b1000000010 4
b10 ;"
12
#416
b10 :"
02
#420
0l
1z
0S
b1110000000 j
1\
1<
0C
1+
0V
1^
0&"
14"
06"
1m
0o
b1100000001 7
1}
1'"
0)"
17"
b100000001 -
b100000001 $"
b100000001 %"
08"
1,
b11 ;"
b1100000001 4
b100000001 .
b100000001 ""
b100000001 #"
12
#424
b11 :"
02
#428
1x
b1111000000 j
1_
0F
16"
04"
12"
1a
0+
18"
07"
15"
b1010000000 -
b1010000000 $"
b1010000000 %"
0'"
1{
b1110000000 7
0m
0,
b1010000000 .
b1010000000 ""
b1010000000 #"
b1110000000 4
b100 ;"
12
#432
b100 :"
02
#436
1v
b1111100000 j
1b
0H
1d
10"
02"
14"
06"
b1111000000 7
1y
13"
05"
17"
b101000000 -
b101000000 $"
b101000000 %"
08"
b101 ;"
b1111000000 4
b101000000 .
b101000000 ""
b101000000 #"
12
#440
b101 :"
02
#444
1t
b1111110000 j
1e
0J
04"
12"
00"
1."
1g
07"
15"
03"
b10100000 -
b10100000 $"
b10100000 %"
11"
b1111100000 7
1w
b10100000 .
b10100000 ""
b10100000 #"
b1111100000 4
b110 ;"
12
#448
b110 :"
02
#452
1r
b1111111000 j
18
0M
1:
1,"
0."
10"
02"
b1111110000 7
1u
1/"
01"
13"
b1010000 -
b1010000 $"
b1010000 %"
05"
b111 ;"
b1111110000 4
b1010000 .
b1010000 ""
b1010000 #"
12
#456
b111 :"
02
#460
1p
b1111111100 j
1=
0O
00"
1."
0,"
1*"
1L
03"
11"
0/"
b101000 -
b101000 $"
b101000 %"
1-"
b1111111000 7
1s
b101000 .
b101000 ""
b101000 #"
b1111111000 4
b1000 ;"
12
#464
b1000 :"
02
#468
1n
b1111111110 j
1T
0R
1i
1("
0*"
1,"
0."
b1111111100 7
1q
1+"
0-"
1/"
b10100 -
b10100 $"
b10100 %"
01"
b1001 ;"
b1111111100 4
b10100 .
b10100 ""
b10100 #"
12
#472
b1001 :"
02
#476
1l
b1111111111 j
1S
0<
0,"
1*"
0("
1&"
1V
0/"
1-"
0+"
b1010 -
b1010 $"
b1010 %"
1)"
b1111111110 7
1o
0U
1h
b1010 .
b1010 ""
b1010 #"
b1111111110 4
b110 1
b110 3
b110 k
b110 9"
b1010 ;"
12
#480
0r
0t
0v
0l
0~
0|
0z
0x
08
0e
0b
0S
0W
0Y
0\
b110 j
0_
1K
1I
1G
1;
1>
1@
1B
1E
0Q
15
1/
b1010 :"
02
#484
0L
0:
0g
0d
0a
0^
0[
0&"
1("
0*"
0s
0u
0w
0y
0{
0}
b110 7
0!"
1'"
0)"
1+"
b101 -
b101 $"
b101 %"
0-"
b1 ;"
b110 4
b101 .
b101 ""
b101 #"
12
#488
1l
1~
1S
1W
0p
b1000000011 j
0=
0K
0I
0G
0;
0>
0@
0B
0E
1C
1A
1O
1M
1J
1H
1F
1Q
b1 :"
05
0/
02
#492
1|
0n
1Y
b1100000001 j
0T
0A
1R
0("
1&"
1[
0i
1+
0+"
1)"
b10 -
b10 $"
b10 %"
0'"
1!"
0q
b1000000011 7
1m
1,
b10 .
b10 ""
b10 #"
b1000000011 4
b10 ;"
12
#496
b10 :"
02
#500
0l
1z
0S
b1110000000 j
1\
1<
0C
0V
1^
0&"
16"
0o
b1100000001 7
1}
1'"
0)"
b1000000001 -
b1000000001 $"
b1000000001 %"
18"
b11 ;"
b1100000001 4
b1000000001 .
b1000000001 ""
b1000000001 #"
12
#504
b11 :"
02
#508
1x
b1111000000 j
1_
0F
14"
1a
0+
17"
b1100000000 -
b1100000000 $"
b1100000000 %"
0'"
1{
b1110000000 7
0m
0,
b1100000000 .
b1100000000 ""
b1100000000 #"
b1110000000 4
b100 ;"
12
#512
b100 :"
02
#516
1v
b1111100000 j
1b
0H
1d
12"
06"
b1111000000 7
1y
15"
b110000000 -
b110000000 $"
b110000000 %"
08"
b101 ;"
b1111000000 4
b110000000 .
b110000000 ""
b110000000 #"
12
#520
b101 :"
02
#524
1t
b1111110000 j
1e
0J
04"
10"
1g
07"
b11000000 -
b11000000 $"
b11000000 %"
13"
b1111100000 7
1w
b11000000 .
b11000000 ""
b11000000 #"
b1111100000 4
b110 ;"
12
#528
b110 :"
02
#532
1r
b1111111000 j
18
0M
1:
1."
02"
b1111110000 7
1u
11"
b1100000 -
b1100000 $"
b1100000 %"
05"
b111 ;"
b1111110000 4
b1100000 .
b1100000 ""
b1100000 #"
12
#536
b111 :"
02
#540
1p
b1111111100 j
1=
0O
00"
1,"
1L
03"
b110000 -
b110000 $"
b110000 %"
1/"
b1111111000 7
1s
b110000 .
b110000 ""
b110000 #"
b1111111000 4
b1000 ;"
12
#544
b1000 :"
02
